%YAML 1.1
%TAG !u! tag:unity3d.com,2011:
--- !u!1 &7978624207812556193
GameObject:
  m_ObjectHideFlags: 0
  m_CorrespondingSourceObject: {fileID: 0}
  m_PrefabInstance: {fileID: 0}
  m_PrefabAsset: {fileID: 0}
  serializedVersion: 6
  m_Component:
  - component: {fileID: 7978624207812061569}
  m_Layer: 0
  m_Name: Paws.R
  m_TagString: Untagged
  m_Icon: {fileID: 0}
  m_NavMeshLayer: 0
  m_StaticEditorFlags: 0
  m_IsActive: 1
--- !u!4 &7978624207812061569
Transform:
  m_ObjectHideFlags: 0
  m_CorrespondingSourceObject: {fileID: 0}
  m_PrefabInstance: {fileID: 0}
  m_PrefabAsset: {fileID: 0}
  m_GameObject: {fileID: 7978624207812556193}
  m_LocalRotation: {x: 0.4690026, y: 0.7136674, z: 0.4716262, w: 0.21973655}
  m_LocalPosition: {x: -0.00000008195639, y: 0.84590137, z: -0.000000029802322}
  m_LocalScale: {x: 0.99999976, y: 1.0000004, z: 0.99999976}
  m_Children: []
  m_Father: {fileID: 7978624207812061581}
  m_RootOrder: 0
  m_LocalEulerAnglesHint: {x: 0, y: 0, z: 0}
--- !u!1 &7978624207812556195
GameObject:
  m_ObjectHideFlags: 0
  m_CorrespondingSourceObject: {fileID: 0}
  m_PrefabInstance: {fileID: 0}
  m_PrefabAsset: {fileID: 0}
  serializedVersion: 6
  m_Component:
  - component: {fileID: 7978624207812061571}
  m_Layer: 0
  m_Name: Paws.L
  m_TagString: Untagged
  m_Icon: {fileID: 0}
  m_NavMeshLayer: 0
  m_StaticEditorFlags: 0
  m_IsActive: 1
--- !u!4 &7978624207812061571
Transform:
  m_ObjectHideFlags: 0
  m_CorrespondingSourceObject: {fileID: 0}
  m_PrefabInstance: {fileID: 0}
  m_PrefabAsset: {fileID: 0}
  m_GameObject: {fileID: 7978624207812556195}
  m_LocalRotation: {x: -0.5345119, y: 0.5483167, z: 0.601829, w: -0.22682078}
  m_LocalPosition: {x: 0.000000059604645, y: 0.84590125, z: -0.000000044703484}
  m_LocalScale: {x: 0.99999994, y: 0.99999905, z: 0.9999993}
  m_Children: []
  m_Father: {fileID: 7978624207812061583}
  m_RootOrder: 0
  m_LocalEulerAnglesHint: {x: 0, y: 0, z: 0}
--- !u!1 &7978624207812556197
GameObject:
  m_ObjectHideFlags: 0
  m_CorrespondingSourceObject: {fileID: 0}
  m_PrefabInstance: {fileID: 0}
  m_PrefabAsset: {fileID: 0}
  serializedVersion: 6
  m_Component:
  - component: {fileID: 7978624207812061573}
  m_Layer: 0
  m_Name: Mouth1.R.001
  m_TagString: Untagged
  m_Icon: {fileID: 0}
  m_NavMeshLayer: 0
  m_StaticEditorFlags: 0
  m_IsActive: 1
--- !u!4 &7978624207812061573
Transform:
  m_ObjectHideFlags: 0
  m_CorrespondingSourceObject: {fileID: 0}
  m_PrefabInstance: {fileID: 0}
  m_PrefabAsset: {fileID: 0}
  m_GameObject: {fileID: 7978624207812556197}
  m_LocalRotation: {x: -0.15156052, y: -0.045648955, z: -0.44369105, w: 0.8820906}
  m_LocalPosition: {x: 0.00000013783574, y: 0.22770587, z: 0.00000009685755}
  m_LocalScale: {x: 1.0000001, y: 1, z: 1}
  m_Children: []
  m_Father: {fileID: 7978624207812061597}
  m_RootOrder: 0
  m_LocalEulerAnglesHint: {x: 0, y: 0, z: 0}
--- !u!1 &7978624207812556199
GameObject:
  m_ObjectHideFlags: 0
  m_CorrespondingSourceObject: {fileID: 0}
  m_PrefabInstance: {fileID: 0}
  m_PrefabAsset: {fileID: 0}
  serializedVersion: 6
  m_Component:
  - component: {fileID: 7978624207812061575}
  m_Layer: 0
  m_Name: Mouth1.R
  m_TagString: Untagged
  m_Icon: {fileID: 0}
  m_NavMeshLayer: 0
  m_StaticEditorFlags: 0
  m_IsActive: 1
--- !u!4 &7978624207812061575
Transform:
  m_ObjectHideFlags: 0
  m_CorrespondingSourceObject: {fileID: 0}
  m_PrefabInstance: {fileID: 0}
  m_PrefabAsset: {fileID: 0}
  m_GameObject: {fileID: 7978624207812556199}
  m_LocalRotation: {x: 0.54555494, y: 0.6030261, z: 0.533268, w: 0.2331409}
  m_LocalPosition: {x: 0.000000014901161, y: 0.2468831, z: -0.0000000661239}
  m_LocalScale: {x: 0.9999998, y: 0.99999994, z: 0.99999994}
  m_Children: []
  m_Father: {fileID: 7978624207812061599}
  m_RootOrder: 0
  m_LocalEulerAnglesHint: {x: 0, y: 0, z: 0}
--- !u!1 &7978624207812556201
GameObject:
  m_ObjectHideFlags: 0
  m_CorrespondingSourceObject: {fileID: 0}
  m_PrefabInstance: {fileID: 0}
  m_PrefabAsset: {fileID: 0}
  serializedVersion: 6
  m_Component:
  - component: {fileID: 7978624207812061577}
  m_Layer: 0
  m_Name: Paws10.R
  m_TagString: Untagged
  m_Icon: {fileID: 0}
  m_NavMeshLayer: 0
  m_StaticEditorFlags: 0
  m_IsActive: 1
--- !u!4 &7978624207812061577
Transform:
  m_ObjectHideFlags: 0
  m_CorrespondingSourceObject: {fileID: 0}
  m_PrefabInstance: {fileID: 0}
  m_PrefabAsset: {fileID: 0}
  m_GameObject: {fileID: 7978624207812556201}
  m_LocalRotation: {x: 0.3706412, y: 0.62157404, z: 0.68992335, w: 0.01663111}
  m_LocalPosition: {x: 0.2983295, y: -0.12789287, z: -0.19986655}
  m_LocalScale: {x: 1, y: 1.0000001, z: 1.0000004}
  m_Children:
  - {fileID: 7978624207812061609}
  m_Father: {fileID: 7978624207812061589}
  m_RootOrder: 12
  m_LocalEulerAnglesHint: {x: 0, y: 0, z: 0}
--- !u!1 &7978624207812556203
GameObject:
  m_ObjectHideFlags: 0
  m_CorrespondingSourceObject: {fileID: 0}
  m_PrefabInstance: {fileID: 0}
  m_PrefabAsset: {fileID: 0}
  serializedVersion: 6
  m_Component:
  - component: {fileID: 7978624207812061579}
  m_Layer: 0
  m_Name: Paws10.L
  m_TagString: Untagged
  m_Icon: {fileID: 0}
  m_NavMeshLayer: 0
  m_StaticEditorFlags: 0
  m_IsActive: 1
--- !u!4 &7978624207812061579
Transform:
  m_ObjectHideFlags: 0
  m_CorrespondingSourceObject: {fileID: 0}
  m_PrefabInstance: {fileID: 0}
  m_PrefabAsset: {fileID: 0}
  m_GameObject: {fileID: 7978624207812556203}
  m_LocalRotation: {x: -0.45297158, y: 0.68252575, z: 0.57317734, w: -0.021050233}
  m_LocalPosition: {x: -0.2983258, y: -0.12789287, z: -0.19987203}
  m_LocalScale: {x: 0.9999996, y: 1.0000008, z: 1.0000002}
  m_Children:
  - {fileID: 7978624207812061611}
  m_Father: {fileID: 7978624207812061589}
  m_RootOrder: 11
  m_LocalEulerAnglesHint: {x: 0, y: 0, z: 0}
--- !u!1 &7978624207812556205
GameObject:
  m_ObjectHideFlags: 0
  m_CorrespondingSourceObject: {fileID: 0}
  m_PrefabInstance: {fileID: 0}
  m_PrefabAsset: {fileID: 0}
  serializedVersion: 6
  m_Component:
  - component: {fileID: 7978624207812061581}
  m_Layer: 0
  m_Name: Paws1.R
  m_TagString: Untagged
  m_Icon: {fileID: 0}
  m_NavMeshLayer: 0
  m_StaticEditorFlags: 0
  m_IsActive: 1
--- !u!4 &7978624207812061581
Transform:
  m_ObjectHideFlags: 0
  m_CorrespondingSourceObject: {fileID: 0}
  m_PrefabInstance: {fileID: 0}
  m_PrefabAsset: {fileID: 0}
  m_GameObject: {fileID: 7978624207812556205}
  m_LocalRotation: {x: 0.35490325, y: 0.9099035, z: -0.0222151, w: 0.21360205}
  m_LocalPosition: {x: 0.19445449, y: 0.1791246, z: -0.18764791}
  m_LocalScale: {x: 1.0000005, y: 0.9999994, z: 0.99999976}
  m_Children:
  - {fileID: 7978624207812061569}
  m_Father: {fileID: 7978624207812061589}
  m_RootOrder: 6
  m_LocalEulerAnglesHint: {x: 0, y: 0, z: 0}
--- !u!1 &7978624207812556207
GameObject:
  m_ObjectHideFlags: 0
  m_CorrespondingSourceObject: {fileID: 0}
  m_PrefabInstance: {fileID: 0}
  m_PrefabAsset: {fileID: 0}
  serializedVersion: 6
  m_Component:
  - component: {fileID: 7978624207812061583}
  m_Layer: 0
  m_Name: Paws1.L
  m_TagString: Untagged
  m_Icon: {fileID: 0}
  m_NavMeshLayer: 0
  m_StaticEditorFlags: 0
  m_IsActive: 1
--- !u!4 &7978624207812061583
Transform:
  m_ObjectHideFlags: 0
  m_CorrespondingSourceObject: {fileID: 0}
  m_PrefabInstance: {fileID: 0}
  m_PrefabAsset: {fileID: 0}
  m_GameObject: {fileID: 7978624207812556207}
  m_LocalRotation: {x: -0.41598314, y: 0.8721635, z: 0.0070702084, w: -0.2573693}
  m_LocalPosition: {x: -0.19445097, y: 0.17912434, z: -0.18765143}
  m_LocalScale: {x: 1.0000006, y: 1.0000004, z: 0.9999994}
  m_Children:
  - {fileID: 7978624207812061571}
  m_Father: {fileID: 7978624207812061589}
  m_RootOrder: 5
  m_LocalEulerAnglesHint: {x: 0, y: 0, z: 0}
--- !u!1 &7978624207812556209
GameObject:
  m_ObjectHideFlags: 0
  m_CorrespondingSourceObject: {fileID: 0}
  m_PrefabInstance: {fileID: 0}
  m_PrefabAsset: {fileID: 0}
  serializedVersion: 6
  m_Component:
  - component: {fileID: 7978624207812061585}
  m_Layer: 0
  m_Name: Mouth.L.001
  m_TagString: Untagged
  m_Icon: {fileID: 0}
  m_NavMeshLayer: 0
  m_StaticEditorFlags: 0
  m_IsActive: 1
--- !u!4 &7978624207812061585
Transform:
  m_ObjectHideFlags: 0
  m_CorrespondingSourceObject: {fileID: 0}
  m_PrefabInstance: {fileID: 0}
  m_PrefabAsset: {fileID: 0}
  m_GameObject: {fileID: 7978624207812556209}
  m_LocalRotation: {x: -0.2893317, y: 0.7109667, z: -0.41643372, w: 0.4872335}
  m_LocalPosition: {x: -0.069909096, y: 0.6830772, z: -0.027184471}
  m_LocalScale: {x: 0.99999994, y: 0.9999999, z: 0.99999994}
  m_Children:
  - {fileID: 7978624207812061593}
  m_Father: {fileID: 7978624207812061589}
  m_RootOrder: 2
  m_LocalEulerAnglesHint: {x: 0, y: 0, z: 0}
--- !u!1 &7978624207812556211
GameObject:
  m_ObjectHideFlags: 0
  m_CorrespondingSourceObject: {fileID: 0}
  m_PrefabInstance: {fileID: 0}
  m_PrefabAsset: {fileID: 0}
  serializedVersion: 6
  m_Component:
  - component: {fileID: 7978624207812061587}
  m_Layer: 0
  m_Name: Mouth.L
  m_TagString: Untagged
  m_Icon: {fileID: 0}
  m_NavMeshLayer: 0
  m_StaticEditorFlags: 0
  m_IsActive: 1
--- !u!4 &7978624207812061587
Transform:
  m_ObjectHideFlags: 0
  m_CorrespondingSourceObject: {fileID: 0}
  m_PrefabInstance: {fileID: 0}
  m_PrefabAsset: {fileID: 0}
  m_GameObject: {fileID: 7978624207812556211}
  m_LocalRotation: {x: -0.13217643, y: 0.9908046, z: 0.022729998, w: -0.017860347}
  m_LocalPosition: {x: -0.047817998, y: 0.69152105, z: -0.024680577}
  m_LocalScale: {x: 0.9999999, y: 0.9999999, z: 1}
  m_Children:
  - {fileID: 7978624207812061595}
  m_Father: {fileID: 7978624207812061589}
  m_RootOrder: 1
  m_LocalEulerAnglesHint: {x: 0, y: 0, z: 0}
--- !u!1 &7978624207812556213
GameObject:
  m_ObjectHideFlags: 0
  m_CorrespondingSourceObject: {fileID: 0}
  m_PrefabInstance: {fileID: 0}
  m_PrefabAsset: {fileID: 0}
  serializedVersion: 6
  m_Component:
  - component: {fileID: 7978624207812061589}
  m_Layer: 0
  m_Name: Bone.001
  m_TagString: Untagged
  m_Icon: {fileID: 0}
  m_NavMeshLayer: 0
  m_StaticEditorFlags: 0
  m_IsActive: 1
--- !u!4 &7978624207812061589
Transform:
  m_ObjectHideFlags: 0
  m_CorrespondingSourceObject: {fileID: 0}
  m_PrefabInstance: {fileID: 0}
  m_PrefabAsset: {fileID: 0}
  m_GameObject: {fileID: 7978624207812556213}
  m_LocalRotation: {x: -0.000004368432, y: 0.1934596, z: 0.98110825, w: -0.0000014458872}
  m_LocalPosition: {x: -0.0000005143485, y: -0.9026865, z: 0.32658514}
  m_LocalScale: {x: 1, y: 0.99999946, z: 0.99999917}
  m_Children:
  - {fileID: 7978624207812061591}
  - {fileID: 7978624207812061587}
  - {fileID: 7978624207812061585}
  - {fileID: 7978624207812061599}
  - {fileID: 7978624207812061597}
  - {fileID: 7978624207812061583}
  - {fileID: 7978624207812061581}
  - {fileID: 7978624207812061623}
  - {fileID: 7978624207812061621}
  - {fileID: 7978624207812061603}
  - {fileID: 7978624207812061601}
  - {fileID: 7978624207812061579}
  - {fileID: 7978624207812061577}
  m_Father: {fileID: 7978624207812061653}
  m_RootOrder: 0
  m_LocalEulerAnglesHint: {x: 0, y: 0, z: 0}
--- !u!1 &7978624207812556215
GameObject:
  m_ObjectHideFlags: 0
  m_CorrespondingSourceObject: {fileID: 0}
  m_PrefabInstance: {fileID: 0}
  m_PrefabAsset: {fileID: 0}
  serializedVersion: 6
  m_Component:
  - component: {fileID: 7978624207812061591}
  m_Layer: 0
  m_Name: Bone
  m_TagString: Untagged
  m_Icon: {fileID: 0}
  m_NavMeshLayer: 0
  m_StaticEditorFlags: 0
  m_IsActive: 1
--- !u!4 &7978624207812061591
Transform:
  m_ObjectHideFlags: 0
  m_CorrespondingSourceObject: {fileID: 0}
  m_PrefabInstance: {fileID: 0}
  m_PrefabAsset: {fileID: 0}
  m_GameObject: {fileID: 7978624207812556215}
  m_LocalRotation: {x: 0.022578001, y: 0.55258644, z: 0.8323511, w: 0.036471784}
  m_LocalPosition: {x: -0.00000043898365, y: 0.0019414425, z: 0.047659244}
  m_LocalScale: {x: 1, y: 1.0000001, z: 1}
  m_Children: []
  m_Father: {fileID: 7978624207812061589}
  m_RootOrder: 0
  m_LocalEulerAnglesHint: {x: 0, y: 0, z: 0}
--- !u!1 &7978624207812556217
GameObject:
  m_ObjectHideFlags: 0
  m_CorrespondingSourceObject: {fileID: 0}
  m_PrefabInstance: {fileID: 0}
  m_PrefabAsset: {fileID: 0}
  serializedVersion: 6
  m_Component:
  - component: {fileID: 7978624207812061593}
  m_Layer: 0
  m_Name: Mouth1.L.001
  m_TagString: Untagged
  m_Icon: {fileID: 0}
  m_NavMeshLayer: 0
  m_StaticEditorFlags: 0
  m_IsActive: 1
--- !u!4 &7978624207812061593
Transform:
  m_ObjectHideFlags: 0
  m_CorrespondingSourceObject: {fileID: 0}
  m_PrefabInstance: {fileID: 0}
  m_PrefabAsset: {fileID: 0}
  m_GameObject: {fileID: 7978624207812556217}
  m_LocalRotation: {x: -0.15156056, y: 0.045648947, z: 0.44369102, w: 0.8820906}
  m_LocalPosition: {x: -0, y: 0.22770604, z: -0.000000014901161}
  m_LocalScale: {x: 1, y: 0.99999994, z: 0.99999994}
  m_Children: []
  m_Father: {fileID: 7978624207812061585}
  m_RootOrder: 0
  m_LocalEulerAnglesHint: {x: 0, y: 0, z: 0}
--- !u!1 &7978624207812556219
GameObject:
  m_ObjectHideFlags: 0
  m_CorrespondingSourceObject: {fileID: 0}
  m_PrefabInstance: {fileID: 0}
  m_PrefabAsset: {fileID: 0}
  serializedVersion: 6
  m_Component:
  - component: {fileID: 7978624207812061595}
  m_Layer: 0
  m_Name: Mouth1.L
  m_TagString: Untagged
  m_Icon: {fileID: 0}
  m_NavMeshLayer: 0
  m_StaticEditorFlags: 0
  m_IsActive: 1
--- !u!4 &7978624207812061595
Transform:
  m_ObjectHideFlags: 0
  m_CorrespondingSourceObject: {fileID: 0}
  m_PrefabInstance: {fileID: 0}
  m_PrefabAsset: {fileID: 0}
  m_GameObject: {fileID: 7978624207812556219}
  m_LocalRotation: {x: -0.53653264, y: 0.7852733, z: 0.2627378, w: -0.16262653}
  m_LocalPosition: {x: -0, y: 0.24688317, z: -0.00000010244548}
  m_LocalScale: {x: 1, y: 1, z: 1}
  m_Children: []
  m_Father: {fileID: 7978624207812061587}
  m_RootOrder: 0
  m_LocalEulerAnglesHint: {x: 0, y: 0, z: 0}
--- !u!1 &7978624207812556221
GameObject:
  m_ObjectHideFlags: 0
  m_CorrespondingSourceObject: {fileID: 0}
  m_PrefabInstance: {fileID: 0}
  m_PrefabAsset: {fileID: 0}
  serializedVersion: 6
  m_Component:
  - component: {fileID: 7978624207812061597}
  m_Layer: 0
  m_Name: Mouth.R.001
  m_TagString: Untagged
  m_Icon: {fileID: 0}
  m_NavMeshLayer: 0
  m_StaticEditorFlags: 0
  m_IsActive: 1
--- !u!4 &7978624207812061597
Transform:
  m_ObjectHideFlags: 0
  m_CorrespondingSourceObject: {fileID: 0}
  m_PrefabInstance: {fileID: 0}
  m_PrefabAsset: {fileID: 0}
  m_GameObject: {fileID: 7978624207812556221}
  m_LocalRotation: {x: 0.28933558, y: 0.71097124, z: -0.41643104, w: -0.48722687}
  m_LocalPosition: {x: 0.06990959, y: 0.6830772, z: -0.027183197}
  m_LocalScale: {x: 0.99999994, y: 0.9999999, z: 0.9999998}
  m_Children:
  - {fileID: 7978624207812061573}
  m_Father: {fileID: 7978624207812061589}
  m_RootOrder: 4
  m_LocalEulerAnglesHint: {x: 0, y: 0, z: 0}
--- !u!1 &7978624207812556223
GameObject:
  m_ObjectHideFlags: 0
  m_CorrespondingSourceObject: {fileID: 0}
  m_PrefabInstance: {fileID: 0}
  m_PrefabAsset: {fileID: 0}
  serializedVersion: 6
  m_Component:
  - component: {fileID: 7978624207812061599}
  m_Layer: 0
  m_Name: Mouth.R
  m_TagString: Untagged
  m_Icon: {fileID: 0}
  m_NavMeshLayer: 0
  m_StaticEditorFlags: 0
  m_IsActive: 1
--- !u!4 &7978624207812061599
Transform:
  m_ObjectHideFlags: 0
  m_CorrespondingSourceObject: {fileID: 0}
  m_PrefabInstance: {fileID: 0}
  m_PrefabAsset: {fileID: 0}
  m_GameObject: {fileID: 7978624207812556223}
  m_LocalRotation: {x: 0.13217676, y: 0.9908043, z: 0.022732204, w: 0.017870326}
  m_LocalPosition: {x: 0.047818452, y: 0.6915209, z: -0.024679706}
  m_LocalScale: {x: 1, y: 0.9999997, z: 1}
  m_Children:
  - {fileID: 7978624207812061575}
  m_Father: {fileID: 7978624207812061589}
  m_RootOrder: 3
  m_LocalEulerAnglesHint: {x: 0, y: 0, z: 0}
--- !u!1 &7978624207812556225
GameObject:
  m_ObjectHideFlags: 0
  m_CorrespondingSourceObject: {fileID: 0}
  m_PrefabInstance: {fileID: 0}
  m_PrefabAsset: {fileID: 0}
  serializedVersion: 6
  m_Component:
  - component: {fileID: 7978624207812061601}
  m_Layer: 0
  m_Name: Paws7.R
  m_TagString: Untagged
  m_Icon: {fileID: 0}
  m_NavMeshLayer: 0
  m_StaticEditorFlags: 0
  m_IsActive: 1
--- !u!4 &7978624207812061601
Transform:
  m_ObjectHideFlags: 0
  m_CorrespondingSourceObject: {fileID: 0}
  m_PrefabInstance: {fileID: 0}
  m_PrefabAsset: {fileID: 0}
  m_GameObject: {fileID: 7978624207812556225}
  m_LocalRotation: {x: 0.30329376, y: 0.8101764, z: 0.4621656, w: -0.19501303}
  m_LocalPosition: {x: 0.3594704, y: -0.17047006, z: -0.2218211}
  m_LocalScale: {x: 1, y: 1.0000007, z: 1.0000006}
  m_Children:
  - {fileID: 7978624207812061605}
  m_Father: {fileID: 7978624207812061589}
  m_RootOrder: 10
  m_LocalEulerAnglesHint: {x: 0, y: 0, z: 0}
--- !u!1 &7978624207812556227
GameObject:
  m_ObjectHideFlags: 0
  m_CorrespondingSourceObject: {fileID: 0}
  m_PrefabInstance: {fileID: 0}
  m_PrefabAsset: {fileID: 0}
  serializedVersion: 6
  m_Component:
  - component: {fileID: 7978624207812061603}
  m_Layer: 0
  m_Name: Paws7.L
  m_TagString: Untagged
  m_Icon: {fileID: 0}
  m_NavMeshLayer: 0
  m_StaticEditorFlags: 0
  m_IsActive: 1
--- !u!4 &7978624207812061603
Transform:
  m_ObjectHideFlags: 0
  m_CorrespondingSourceObject: {fileID: 0}
  m_PrefabInstance: {fileID: 0}
  m_PrefabAsset: {fileID: 0}
  m_GameObject: {fileID: 7978624207812556227}
  m_LocalRotation: {x: -0.30741873, y: 0.844838, z: 0.40376586, w: 0.16945681}
  m_LocalPosition: {x: -0.3594664, y: -0.17046997, z: -0.22182766}
  m_LocalScale: {x: 0.99999934, y: 0.99999994, z: 1.0000005}
  m_Children:
  - {fileID: 7978624207812061607}
  m_Father: {fileID: 7978624207812061589}
  m_RootOrder: 9
  m_LocalEulerAnglesHint: {x: 0, y: 0, z: 0}
--- !u!1 &7978624207812556229
GameObject:
  m_ObjectHideFlags: 0
  m_CorrespondingSourceObject: {fileID: 0}
  m_PrefabInstance: {fileID: 0}
  m_PrefabAsset: {fileID: 0}
  serializedVersion: 6
  m_Component:
  - component: {fileID: 7978624207812061605}
  m_Layer: 0
  m_Name: Paws6.R
  m_TagString: Untagged
  m_Icon: {fileID: 0}
  m_NavMeshLayer: 0
  m_StaticEditorFlags: 0
  m_IsActive: 1
--- !u!4 &7978624207812061605
Transform:
  m_ObjectHideFlags: 0
  m_CorrespondingSourceObject: {fileID: 0}
  m_PrefabInstance: {fileID: 0}
  m_PrefabAsset: {fileID: 0}
  m_GameObject: {fileID: 7978624207812556229}
  m_LocalRotation: {x: -0.49202028, y: 0.47026345, z: 0.5852622, w: 0.44072276}
  m_LocalPosition: {x: -0.00000014901161, y: 1.7429714, z: -0.000000115484}
  m_LocalScale: {x: 1.0000006, y: 1.0000002, z: 0.9999998}
  m_Children:
  - {fileID: 7978624207812061625}
  m_Father: {fileID: 7978624207812061601}
  m_RootOrder: 0
  m_LocalEulerAnglesHint: {x: 0, y: 0, z: 0}
--- !u!1 &7978624207812556231
GameObject:
  m_ObjectHideFlags: 0
  m_CorrespondingSourceObject: {fileID: 0}
  m_PrefabInstance: {fileID: 0}
  m_PrefabAsset: {fileID: 0}
  serializedVersion: 6
  m_Component:
  - component: {fileID: 7978624207812061607}
  m_Layer: 0
  m_Name: Paws6.L
  m_TagString: Untagged
  m_Icon: {fileID: 0}
  m_NavMeshLayer: 0
  m_StaticEditorFlags: 0
  m_IsActive: 1
--- !u!4 &7978624207812061607
Transform:
  m_ObjectHideFlags: 0
  m_CorrespondingSourceObject: {fileID: 0}
  m_PrefabInstance: {fileID: 0}
  m_PrefabAsset: {fileID: 0}
  m_GameObject: {fileID: 7978624207812556231}
  m_LocalRotation: {x: 0.4920172, y: 0.47026762, z: 0.58525854, w: -0.44072652}
  m_LocalPosition: {x: 0.00000020116568, y: 1.7429714, z: -0.000000078231096}
  m_LocalScale: {x: 1.0000002, y: 1.0000006, z: 1.0000002}
  m_Children:
  - {fileID: 7978624207812061627}
  m_Father: {fileID: 7978624207812061603}
  m_RootOrder: 0
  m_LocalEulerAnglesHint: {x: 0, y: 0, z: 0}
--- !u!1 &7978624207812556233
GameObject:
  m_ObjectHideFlags: 0
  m_CorrespondingSourceObject: {fileID: 0}
  m_PrefabInstance: {fileID: 0}
  m_PrefabAsset: {fileID: 0}
  serializedVersion: 6
  m_Component:
  - component: {fileID: 7978624207812061609}
  m_Layer: 0
  m_Name: Paws9.R
  m_TagString: Untagged
  m_Icon: {fileID: 0}
  m_NavMeshLayer: 0
  m_StaticEditorFlags: 0
  m_IsActive: 1
--- !u!4 &7978624207812061609
Transform:
  m_ObjectHideFlags: 0
  m_CorrespondingSourceObject: {fileID: 0}
  m_PrefabInstance: {fileID: 0}
  m_PrefabAsset: {fileID: 0}
  m_GameObject: {fileID: 7978624207812556233}
  m_LocalRotation: {x: 0.63551444, y: -0.40431893, z: -0.47196653, w: -0.4581432}
  m_LocalPosition: {x: -0.00000023841858, y: 2.3448386, z: -0.000000029802322}
  m_LocalScale: {x: 0.99999964, y: 0.99999946, z: 0.9999997}
  m_Children:
  - {fileID: 7978624207812061613}
  m_Father: {fileID: 7978624207812061577}
  m_RootOrder: 0
  m_LocalEulerAnglesHint: {x: 0, y: 0, z: 0}
--- !u!1 &7978624207812556235
GameObject:
  m_ObjectHideFlags: 0
  m_CorrespondingSourceObject: {fileID: 0}
  m_PrefabInstance: {fileID: 0}
  m_PrefabAsset: {fileID: 0}
  serializedVersion: 6
  m_Component:
  - component: {fileID: 7978624207812061611}
  m_Layer: 0
  m_Name: Paws9.L
  m_TagString: Untagged
  m_Icon: {fileID: 0}
  m_NavMeshLayer: 0
  m_StaticEditorFlags: 0
  m_IsActive: 1
--- !u!4 &7978624207812061611
Transform:
  m_ObjectHideFlags: 0
  m_CorrespondingSourceObject: {fileID: 0}
  m_PrefabInstance: {fileID: 0}
  m_PrefabAsset: {fileID: 0}
  m_GameObject: {fileID: 7978624207812556235}
  m_LocalRotation: {x: 0.6353197, y: 0.40452588, z: 0.47182283, w: -0.4583787}
  m_LocalPosition: {x: -0.00000031593663, y: 2.344839, z: -0.00000010209624}
  m_LocalScale: {x: 1.0000004, y: 1.0000011, z: 1.0000006}
  m_Children:
  - {fileID: 7978624207812061615}
  m_Father: {fileID: 7978624207812061579}
  m_RootOrder: 0
  m_LocalEulerAnglesHint: {x: 0, y: 0, z: 0}
--- !u!1 &7978624207812556237
GameObject:
  m_ObjectHideFlags: 0
  m_CorrespondingSourceObject: {fileID: 0}
  m_PrefabInstance: {fileID: 0}
  m_PrefabAsset: {fileID: 0}
  serializedVersion: 6
  m_Component:
  - component: {fileID: 7978624207812061613}
  m_Layer: 0
  m_Name: Paws8.R
  m_TagString: Untagged
  m_Icon: {fileID: 0}
  m_NavMeshLayer: 0
  m_StaticEditorFlags: 0
  m_IsActive: 1
--- !u!4 &7978624207812061613
Transform:
  m_ObjectHideFlags: 0
  m_CorrespondingSourceObject: {fileID: 0}
  m_PrefabInstance: {fileID: 0}
  m_PrefabAsset: {fileID: 0}
  m_GameObject: {fileID: 7978624207812556237}
  m_LocalRotation: {x: 0.07497726, y: -0.36481902, z: -0.032279436, w: 0.92749316}
  m_LocalPosition: {x: -0.000000115484, y: 1.7834592, z: 0.000000029802322}
  m_LocalScale: {x: 1.0000004, y: 0.99999964, z: 0.99999917}
  m_Children: []
  m_Father: {fileID: 7978624207812061609}
  m_RootOrder: 0
  m_LocalEulerAnglesHint: {x: 0, y: 0, z: 0}
--- !u!1 &7978624207812556239
GameObject:
  m_ObjectHideFlags: 0
  m_CorrespondingSourceObject: {fileID: 0}
  m_PrefabInstance: {fileID: 0}
  m_PrefabAsset: {fileID: 0}
  serializedVersion: 6
  m_Component:
  - component: {fileID: 7978624207812061615}
  m_Layer: 0
  m_Name: Paws8.L
  m_TagString: Untagged
  m_Icon: {fileID: 0}
  m_NavMeshLayer: 0
  m_StaticEditorFlags: 0
  m_IsActive: 1
--- !u!4 &7978624207812061615
Transform:
  m_ObjectHideFlags: 0
  m_CorrespondingSourceObject: {fileID: 0}
  m_PrefabInstance: {fileID: 0}
  m_PrefabAsset: {fileID: 0}
  m_GameObject: {fileID: 7978624207812556239}
  m_LocalRotation: {x: 0.07503626, y: 0.3648178, z: 0.032295603, w: 0.92748827}
  m_LocalPosition: {x: 0.000000026077032, y: 1.7834592, z: -0.000000044703484}
  m_LocalScale: {x: 1.0000005, y: 0.99999976, z: 0.9999993}
  m_Children: []
  m_Father: {fileID: 7978624207812061611}
  m_RootOrder: 0
  m_LocalEulerAnglesHint: {x: 0, y: 0, z: 0}
--- !u!1 &7978624207812556241
GameObject:
  m_ObjectHideFlags: 0
  m_CorrespondingSourceObject: {fileID: 0}
  m_PrefabInstance: {fileID: 0}
  m_PrefabAsset: {fileID: 0}
  serializedVersion: 6
  m_Component:
  - component: {fileID: 7978624207812061617}
  m_Layer: 0
  m_Name: Paws3.R
  m_TagString: Untagged
  m_Icon: {fileID: 0}
  m_NavMeshLayer: 0
  m_StaticEditorFlags: 0
  m_IsActive: 1
--- !u!4 &7978624207812061617
Transform:
  m_ObjectHideFlags: 0
  m_CorrespondingSourceObject: {fileID: 0}
  m_PrefabInstance: {fileID: 0}
  m_PrefabAsset: {fileID: 0}
  m_GameObject: {fileID: 7978624207812556241}
  m_LocalRotation: {x: -0.47822466, y: 0.40597975, z: 0.580437, w: 0.51920563}
  m_LocalPosition: {x: 0.00000007636845, y: 1.0510226, z: 0.000000007450581}
  m_LocalScale: {x: 0.9999996, y: 0.99999934, z: 0.9999992}
  m_Children:
  - {fileID: 7978624207812061629}
  m_Father: {fileID: 7978624207812061621}
  m_RootOrder: 0
  m_LocalEulerAnglesHint: {x: 0, y: 0, z: 0}
--- !u!1 &7978624207812556243
GameObject:
  m_ObjectHideFlags: 0
  m_CorrespondingSourceObject: {fileID: 0}
  m_PrefabInstance: {fileID: 0}
  m_PrefabAsset: {fileID: 0}
  serializedVersion: 6
  m_Component:
  - component: {fileID: 7978624207812061619}
  m_Layer: 0
  m_Name: Paws3.L
  m_TagString: Untagged
  m_Icon: {fileID: 0}
  m_NavMeshLayer: 0
  m_StaticEditorFlags: 0
  m_IsActive: 1
--- !u!4 &7978624207812061619
Transform:
  m_ObjectHideFlags: 0
  m_CorrespondingSourceObject: {fileID: 0}
  m_PrefabInstance: {fileID: 0}
  m_PrefabAsset: {fileID: 0}
  m_GameObject: {fileID: 7978624207812556243}
  m_LocalRotation: {x: -0.48212513, y: -0.40167695, z: -0.5851319, w: 0.5136454}
  m_LocalPosition: {x: -0.00000008940697, y: 1.0510229, z: -0.000000074505806}
  m_LocalScale: {x: 1, y: 1.0000001, z: 1.0000002}
  m_Children:
  - {fileID: 7978624207812061631}
  m_Father: {fileID: 7978624207812061623}
  m_RootOrder: 0
  m_LocalEulerAnglesHint: {x: 0, y: 0, z: 0}
--- !u!1 &7978624207812556245
GameObject:
  m_ObjectHideFlags: 0
  m_CorrespondingSourceObject: {fileID: 0}
  m_PrefabInstance: {fileID: 0}
  m_PrefabAsset: {fileID: 0}
  serializedVersion: 6
  m_Component:
  - component: {fileID: 7978624207812061621}
  m_Layer: 0
  m_Name: Paws2.R
  m_TagString: Untagged
  m_Icon: {fileID: 0}
  m_NavMeshLayer: 0
  m_StaticEditorFlags: 0
  m_IsActive: 1
--- !u!4 &7978624207812061621
Transform:
  m_ObjectHideFlags: 0
  m_CorrespondingSourceObject: {fileID: 0}
  m_PrefabInstance: {fileID: 0}
  m_PrefabAsset: {fileID: 0}
  m_GameObject: {fileID: 7978624207812556245}
  m_LocalRotation: {x: 0.27243373, y: 0.8206126, z: 0.4414971, w: -0.23969808}
  m_LocalPosition: {x: 0.24950714, y: 0.01931664, z: -0.2171203}
  m_LocalScale: {x: 0.9999999, y: 1, z: 1.0000005}
  m_Children:
  - {fileID: 7978624207812061617}
  m_Father: {fileID: 7978624207812061589}
  m_RootOrder: 8
  m_LocalEulerAnglesHint: {x: 0, y: 0, z: 0}
--- !u!1 &7978624207812556247
GameObject:
  m_ObjectHideFlags: 0
  m_CorrespondingSourceObject: {fileID: 0}
  m_PrefabInstance: {fileID: 0}
  m_PrefabAsset: {fileID: 0}
  serializedVersion: 6
  m_Component:
  - component: {fileID: 7978624207812061623}
  m_Layer: 0
  m_Name: Paws2.L
  m_TagString: Untagged
  m_Icon: {fileID: 0}
  m_NavMeshLayer: 0
  m_StaticEditorFlags: 0
  m_IsActive: 1
--- !u!4 &7978624207812061623
Transform:
  m_ObjectHideFlags: 0
  m_CorrespondingSourceObject: {fileID: 0}
  m_PrefabInstance: {fileID: 0}
  m_PrefabAsset: {fileID: 0}
  m_GameObject: {fileID: 7978624207812556247}
  m_LocalRotation: {x: -0.2053047, y: 0.8152765, z: 0.44341072, w: 0.31074283}
  m_LocalPosition: {x: -0.24950306, y: 0.019316435, z: -0.21712483}
  m_LocalScale: {x: 0.9999999, y: 0.9999996, z: 1.0000006}
  m_Children:
  - {fileID: 7978624207812061619}
  m_Father: {fileID: 7978624207812061589}
  m_RootOrder: 7
  m_LocalEulerAnglesHint: {x: 0, y: 0, z: 0}
--- !u!1 &7978624207812556249
GameObject:
  m_ObjectHideFlags: 0
  m_CorrespondingSourceObject: {fileID: 0}
  m_PrefabInstance: {fileID: 0}
  m_PrefabAsset: {fileID: 0}
  serializedVersion: 6
  m_Component:
  - component: {fileID: 7978624207812061625}
  m_Layer: 0
  m_Name: Paws5.R
  m_TagString: Untagged
  m_Icon: {fileID: 0}
  m_NavMeshLayer: 0
  m_StaticEditorFlags: 0
  m_IsActive: 1
--- !u!4 &7978624207812061625
Transform:
  m_ObjectHideFlags: 0
  m_CorrespondingSourceObject: {fileID: 0}
  m_PrefabInstance: {fileID: 0}
  m_PrefabAsset: {fileID: 0}
  m_GameObject: {fileID: 7978624207812556249}
  m_LocalRotation: {x: -0.02172672, y: -0.03529182, z: 0.0150798615, w: 0.9990271}
  m_LocalPosition: {x: 0.000000033527613, y: 1.0948972, z: -0.000000044703484}
  m_LocalScale: {x: 1.0000002, y: 0.9999998, z: 1.0000002}
  m_Children: []
  m_Father: {fileID: 7978624207812061605}
  m_RootOrder: 0
  m_LocalEulerAnglesHint: {x: 0, y: 0, z: 0}
--- !u!1 &7978624207812556251
GameObject:
  m_ObjectHideFlags: 0
  m_CorrespondingSourceObject: {fileID: 0}
  m_PrefabInstance: {fileID: 0}
  m_PrefabAsset: {fileID: 0}
  serializedVersion: 6
  m_Component:
  - component: {fileID: 7978624207812061627}
  m_Layer: 0
  m_Name: Paws5.L
  m_TagString: Untagged
  m_Icon: {fileID: 0}
  m_NavMeshLayer: 0
  m_StaticEditorFlags: 0
  m_IsActive: 1
--- !u!4 &7978624207812061627
Transform:
  m_ObjectHideFlags: 0
  m_CorrespondingSourceObject: {fileID: 0}
  m_PrefabInstance: {fileID: 0}
  m_PrefabAsset: {fileID: 0}
  m_GameObject: {fileID: 7978624207812556251}
  m_LocalRotation: {x: -0.021724045, y: 0.035291787, z: -0.015079573, w: 0.99902713}
  m_LocalPosition: {x: 0.00000013411045, y: 1.0948973, z: 0.00000017881393}
  m_LocalScale: {x: 1, y: 1.0000002, z: 0.9999999}
  m_Children: []
  m_Father: {fileID: 7978624207812061607}
  m_RootOrder: 0
  m_LocalEulerAnglesHint: {x: 0, y: 0, z: 0}
--- !u!1 &7978624207812556253
GameObject:
  m_ObjectHideFlags: 0
  m_CorrespondingSourceObject: {fileID: 0}
  m_PrefabInstance: {fileID: 0}
  m_PrefabAsset: {fileID: 0}
  serializedVersion: 6
  m_Component:
  - component: {fileID: 7978624207812061629}
  m_Layer: 0
  m_Name: Paws4.R
  m_TagString: Untagged
  m_Icon: {fileID: 0}
  m_NavMeshLayer: 0
  m_StaticEditorFlags: 0
  m_IsActive: 1
--- !u!4 &7978624207812061629
Transform:
  m_ObjectHideFlags: 0
  m_CorrespondingSourceObject: {fileID: 0}
  m_PrefabInstance: {fileID: 0}
  m_PrefabAsset: {fileID: 0}
  m_GameObject: {fileID: 7978624207812556253}
  m_LocalRotation: {x: -0.11301039, y: -0.05581, z: 0.025115347, w: 0.9917072}
  m_LocalPosition: {x: 0.00000017136335, y: 0.6978415, z: 0.000000014901161}
  m_LocalScale: {x: 0.99999946, y: 0.99999976, z: 0.9999996}
  m_Children: []
  m_Father: {fileID: 7978624207812061617}
  m_RootOrder: 0
  m_LocalEulerAnglesHint: {x: 0, y: 0, z: 0}
--- !u!1 &7978624207812556255
GameObject:
  m_ObjectHideFlags: 0
  m_CorrespondingSourceObject: {fileID: 0}
  m_PrefabInstance: {fileID: 0}
  m_PrefabAsset: {fileID: 0}
  serializedVersion: 6
  m_Component:
  - component: {fileID: 7978624207812061631}
  m_Layer: 0
  m_Name: Paws4.L
  m_TagString: Untagged
  m_Icon: {fileID: 0}
  m_NavMeshLayer: 0
  m_StaticEditorFlags: 0
  m_IsActive: 1
--- !u!4 &7978624207812061631
Transform:
  m_ObjectHideFlags: 0
  m_CorrespondingSourceObject: {fileID: 0}
  m_PrefabInstance: {fileID: 0}
  m_PrefabAsset: {fileID: 0}
  m_GameObject: {fileID: 7978624207812556255}
  m_LocalRotation: {x: -0.11669849, y: 0.055763636, z: -0.026119389, w: 0.9912566}
  m_LocalPosition: {x: -0, y: 0.6978415, z: -0.00000013411045}
  m_LocalScale: {x: 0.9999999, y: 0.9999998, z: 0.99999994}
  m_Children: []
  m_Father: {fileID: 7978624207812061619}
  m_RootOrder: 0
  m_LocalEulerAnglesHint: {x: 0, y: 0, z: 0}
--- !u!1 &7978624207812556273
GameObject:
  m_ObjectHideFlags: 0
  m_CorrespondingSourceObject: {fileID: 0}
  m_PrefabInstance: {fileID: 0}
  m_PrefabAsset: {fileID: 0}
  serializedVersion: 6
  m_Component:
  - component: {fileID: 7978624207812061649}
  - component: {fileID: 7978624207798892725}
  m_Layer: 0
  m_Name: Spider_Fuga_Blue_Green
  m_TagString: Untagged
  m_Icon: {fileID: 0}
  m_NavMeshLayer: 0
  m_StaticEditorFlags: 0
  m_IsActive: 1
--- !u!4 &7978624207812061649
Transform:
  m_ObjectHideFlags: 0
  m_CorrespondingSourceObject: {fileID: 0}
  m_PrefabInstance: {fileID: 0}
  m_PrefabAsset: {fileID: 0}
  m_GameObject: {fileID: 7978624207812556273}
  m_LocalRotation: {x: -6.123234e-17, y: 1, z: 6.123234e-17, w: -3.7493994e-33}
  m_LocalPosition: {x: -0, y: 0, z: 0}
  m_LocalScale: {x: 1, y: 1, z: 1}
  m_Children: []
  m_Father: {fileID: 7978624207812061655}
  m_RootOrder: 1
  m_LocalEulerAnglesHint: {x: 0, y: 0, z: 0}
--- !u!137 &7978624207798892725
SkinnedMeshRenderer:
  m_ObjectHideFlags: 0
  m_CorrespondingSourceObject: {fileID: 0}
  m_PrefabInstance: {fileID: 0}
  m_PrefabAsset: {fileID: 0}
  m_GameObject: {fileID: 7978624207812556273}
  m_Enabled: 1
  m_CastShadows: 1
  m_ReceiveShadows: 1
  m_DynamicOccludee: 1
  m_MotionVectors: 1
  m_LightProbeUsage: 1
  m_ReflectionProbeUsage: 1
  m_RayTracingMode: 0
  m_RenderingLayerMask: 1
  m_RendererPriority: 0
  m_Materials:
  - {fileID: 2100000, guid: 0e5810a7a4f8f084e8f664232fb6ea63, type: 2}
  m_StaticBatchInfo:
    firstSubMesh: 0
    subMeshCount: 0
  m_StaticBatchRoot: {fileID: 0}
  m_ProbeAnchor: {fileID: 0}
  m_LightProbeVolumeOverride: {fileID: 0}
  m_ScaleInLightmap: 1
  m_ReceiveGI: 1
  m_PreserveUVs: 0
  m_IgnoreNormalsForChartDetection: 0
  m_ImportantGI: 0
  m_StitchLightmapSeams: 0
  m_SelectedEditorRenderState: 3
  m_MinimumChartSize: 4
  m_AutoUVMaxDistance: 0.5
  m_AutoUVMaxAngle: 89
  m_LightmapParameters: {fileID: 0}
  m_SortingLayerID: 0
  m_SortingLayer: 0
  m_SortingOrder: 0
  serializedVersion: 2
  m_Quality: 0
  m_UpdateWhenOffscreen: 0
  m_SkinnedMotionVectors: 1
  m_Mesh: {fileID: 4300006, guid: 17f2f54fedc2dd246828d6a328855293, type: 3}
  m_Bones:
  - {fileID: 7978624207812061589}
  - {fileID: 7978624207812061591}
  - {fileID: 7978624207812061587}
  - {fileID: 7978624207812061595}
  - {fileID: 7978624207812061583}
  - {fileID: 7978624207812061571}
  - {fileID: 7978624207812061623}
  - {fileID: 7978624207812061619}
  - {fileID: 7978624207812061631}
  - {fileID: 7978624207812061603}
  - {fileID: 7978624207812061607}
  - {fileID: 7978624207812061627}
  - {fileID: 7978624207812061579}
  - {fileID: 7978624207812061611}
  - {fileID: 7978624207812061615}
  - {fileID: 7978624207812061599}
  - {fileID: 7978624207812061575}
  - {fileID: 7978624207812061581}
  - {fileID: 7978624207812061569}
  - {fileID: 7978624207812061621}
  - {fileID: 7978624207812061617}
  - {fileID: 7978624207812061629}
  - {fileID: 7978624207812061601}
  - {fileID: 7978624207812061605}
  - {fileID: 7978624207812061625}
  - {fileID: 7978624207812061577}
  - {fileID: 7978624207812061609}
  - {fileID: 7978624207812061613}
  - {fileID: 7978624207812061585}
  - {fileID: 7978624207812061593}
  - {fileID: 7978624207812061597}
  - {fileID: 7978624207812061573}
  m_BlendShapeWeights: []
  m_RootBone: {fileID: 7978624207812061589}
  m_AABB:
    m_Center: {x: 0.0023155212, y: -0.50467485, z: 0.9505632}
    m_Extent: {x: 2.62731, y: 1.6139781, z: 1.7910836}
  m_DirtyAABB: 0
--- !u!1 &7978624207812556277
GameObject:
  m_ObjectHideFlags: 0
  m_CorrespondingSourceObject: {fileID: 0}
  m_PrefabInstance: {fileID: 0}
  m_PrefabAsset: {fileID: 0}
  serializedVersion: 6
  m_Component:
  - component: {fileID: 7978624207812061653}
  m_Layer: 0
  m_Name: Spider_Fuga.c
  m_TagString: Untagged
  m_Icon: {fileID: 0}
  m_NavMeshLayer: 0
  m_StaticEditorFlags: 0
  m_IsActive: 1
--- !u!4 &7978624207812061653
Transform:
  m_ObjectHideFlags: 0
  m_CorrespondingSourceObject: {fileID: 0}
  m_PrefabInstance: {fileID: 0}
  m_PrefabAsset: {fileID: 0}
  m_GameObject: {fileID: 7978624207812556277}
  m_LocalRotation: {x: -0.7071067, y: 5.302452e-33, z: 5.302451e-33, w: 0.7071068}
  m_LocalPosition: {x: -0, y: 0, z: 0}
  m_LocalScale: {x: 1, y: 1, z: 1}
  m_Children:
  - {fileID: 7978624207812061589}
  m_Father: {fileID: 7978624207812061655}
  m_RootOrder: 0
  m_LocalEulerAnglesHint: {x: 0, y: 0, z: 0}
--- !u!1 &7978624207812556279
GameObject:
  m_ObjectHideFlags: 0
  m_CorrespondingSourceObject: {fileID: 0}
  m_PrefabInstance: {fileID: 0}
  m_PrefabAsset: {fileID: 0}
  serializedVersion: 6
  m_Component:
  - component: {fileID: 7978624207812061655}
  - component: {fileID: 7978624207803025015}
  - component: {fileID: 52657568567217627}
  - component: {fileID: 4096508557454625616}
  - component: {fileID: 4896541765610913719}
  m_Layer: 0
  m_Name: Spider_Fuga_Blue_Green
  m_TagString: Enemy
  m_Icon: {fileID: 0}
  m_NavMeshLayer: 0
  m_StaticEditorFlags: 0
  m_IsActive: 1
--- !u!4 &7978624207812061655
Transform:
  m_ObjectHideFlags: 0
  m_CorrespondingSourceObject: {fileID: 0}
  m_PrefabInstance: {fileID: 0}
  m_PrefabAsset: {fileID: 0}
  m_GameObject: {fileID: 7978624207812556279}
  m_LocalRotation: {x: 0, y: 0, z: 0, w: 1}
  m_LocalPosition: {x: 0, y: 0, z: 0}
  m_LocalScale: {x: 1, y: 1, z: 1}
  m_Children:
  - {fileID: 7978624207812061653}
  - {fileID: 7978624207812061649}
  m_Father: {fileID: 0}
  m_RootOrder: 0
  m_LocalEulerAnglesHint: {x: 0, y: 0, z: 0}
--- !u!95 &7978624207803025015
Animator:
  serializedVersion: 3
  m_ObjectHideFlags: 0
  m_CorrespondingSourceObject: {fileID: 0}
  m_PrefabInstance: {fileID: 0}
  m_PrefabAsset: {fileID: 0}
  m_GameObject: {fileID: 7978624207812556279}
  m_Enabled: 1
  m_Avatar: {fileID: 9000000, guid: 17f2f54fedc2dd246828d6a328855293, type: 3}
  m_Controller: {fileID: 9100000, guid: 0c7deb298d1917b46abb20e3da49a6c5, type: 2}
  m_CullingMode: 1
  m_UpdateMode: 0
  m_ApplyRootMotion: 0
  m_LinearVelocityBlending: 0
  m_WarningMessage: 
  m_HasTransformHierarchy: 1
  m_AllowConstantClipSamplingOptimization: 1
  m_KeepAnimatorControllerStateOnDisable: 0
--- !u!114 &52657568567217627
MonoBehaviour:
  m_ObjectHideFlags: 0
  m_CorrespondingSourceObject: {fileID: 0}
  m_PrefabInstance: {fileID: 0}
  m_PrefabAsset: {fileID: 0}
  m_GameObject: {fileID: 7978624207812556279}
  m_Enabled: 1
  m_EditorHideFlags: 0
  m_Script: {fileID: 11500000, guid: 4dd9df7738dbbf34db5463f053d28d24, type: 3}
  m_Name: 
  m_EditorClassIdentifier: 
  _animator: {fileID: 7978624207803025015}
  _animateWhenRun: 1
--- !u!195 &4096508557454625616
NavMeshAgent:
  m_ObjectHideFlags: 0
  m_CorrespondingSourceObject: {fileID: 0}
  m_PrefabInstance: {fileID: 0}
  m_PrefabAsset: {fileID: 0}
  m_GameObject: {fileID: 7978624207812556279}
  m_Enabled: 1
  m_AgentTypeID: 0
  m_Radius: 0.5
  m_Speed: 3.5
  m_Acceleration: 8
  avoidancePriority: 50
  m_AngularSpeed: 120
  m_StoppingDistance: 0
  m_AutoTraverseOffMeshLink: 1
  m_AutoBraking: 1
  m_AutoRepath: 1
  m_Height: 2
  m_BaseOffset: 0.25
  m_WalkableMask: 1
  m_ObstacleAvoidanceType: 2
--- !u!114 &4896541765610913719
MonoBehaviour:
  m_ObjectHideFlags: 0
  m_CorrespondingSourceObject: {fileID: 0}
  m_PrefabInstance: {fileID: 0}
  m_PrefabAsset: {fileID: 0}
  m_GameObject: {fileID: 7978624207812556279}
  m_Enabled: 1
  m_EditorHideFlags: 0
  m_Script: {fileID: 11500000, guid: f5eec29516deafe49bebe1d2640861e5, type: 3}
  m_Name: 
  m_EditorClassIdentifier: 
  player: {fileID: 0}
  bDistance: 0
  ac: {fileID: 0}
  speed: 1
  maxDistance: 20
  stopDistance: 1
